<?xml version="1.0" encoding="UTF-8" standalone="no"?>
<svg
   xmlns:dc="http://purl.org/dc/elements/1.1/"
   xmlns:cc="http://creativecommons.org/ns#"
   xmlns:rdf="http://www.w3.org/1999/02/22-rdf-syntax-ns#"
   xmlns:svg="http://www.w3.org/2000/svg"
   xmlns="http://www.w3.org/2000/svg"
   xmlns:sodipodi="http://sodipodi.sourceforge.net/DTD/sodipodi-0.dtd"
   xmlns:inkscape="http://www.inkscape.org/namespaces/inkscape"
   width="16"
   height="16"
   viewBox="0 -1 16 16"
   preserveAspectRatio="xMinYMid meet"
   overflow="visible"
   enable-background="new 0 -1 12 12"
   id="svg2"
   version="1.1"
   inkscape:version="0.91 r13725"
   sodipodi:docname="email.svg"
   style="overflow:visible">
  <metadata
     id="metadata10">
    <rdf:RDF>
      <cc:Work
         rdf:about="">
        <dc:format>image/svg+xml</dc:format>
        <dc:type
           rdf:resource="http://purl.org/dc/dcmitype/StillImage" />
        <dc:title></dc:title>
      </cc:Work>
    </rdf:RDF>
  </metadata>
  <defs
     id="defs8" />
  <sodipodi:namedview
     pagecolor="#ffffff"
     bordercolor="#666666"
     borderopacity="1"
     objecttolerance="10"
     gridtolerance="10"
     guidetolerance="10"
     inkscape:pageopacity="0"
     inkscape:pageshadow="2"
     inkscape:window-width="1855"
     inkscape:window-height="952"
     id="namedview6"
     showgrid="false"
     inkscape:zoom="19.666667"
     inkscape:cx="-11.694915"
     inkscape:cy="6.0000002"
     inkscape:window-x="65"
     inkscape:window-y="24"
     inkscape:window-maximized="1"
     inkscape:current-layer="svg2" />
  <path
     d="M 0,3.0169492 0,15 l 16,0 0,-11.9830508 -16,0 z m 1.3333327,3.2354237 3.6,3.2354237 -3.6,3.2354234 0,-6.4708471 z m 4.5333346,4.0742371 1.6,1.437966 C 7.6,11.884407 7.8666673,12.004237 8,12.004237 c 0.1333327,0 0.4,0 0.5333327,-0.11983 l 1.6000013,-1.437966 3.733339,3.355254 -11.7333403,0 3.7333346,-3.475085 z m 5.1999987,-0.8388134 3.600007,-3.2354237 0,6.4708471 -3.600007,-3.2354234 z m 3.600007,-5.2725424 0,0.3594916 -6.1333403,5.5122032 C 8.2666673,10.32661 7.8666673,10.32661 7.6,10.086949 l -6.2666673,-5.5122032 0,-0.3594916 13.3333403,0 z"
     id="path4"
     style="fill:#ffffff;fill-opacity:1"
     inkscape:connector-curvature="0" />
</svg>
